,Evento_video,Evento_foro,Evento_prueba_abierta,Evento_interaccion,Evento_instriccion,Evento_textbook,Evento_problema,Nota
196,0,0,0,0,1,0,0,downloadable
258,0,0,0,0,0,0,0,notpassing
407,8,0,0,22,0,0,5,notpassing
420,7,0,0,24,0,0,0,notpassing
535,0,0,0,0,0,0,0,notpassing
551,0,0,0,0,0,0,0,notpassing
777,3,0,0,10,0,0,3,downloadable
782,8,0,0,16,0,0,14,notpassing
818,0,0,0,0,0,0,0,notpassing
844,9,0,0,17,0,0,8,notpassing
846,0,0,0,0,0,0,0,notpassing
1063,15,2,0,0,0,0,5,downloadable
1189,0,0,0,0,1,0,0,notpassing
1208,28,0,0,23,0,0,11,downloadable
1282,0,1,0,0,0,0,0,notpassing
1359,0,0,0,0,0,0,0,notpassing
1413,15,0,0,5,0,0,0,notpassing
1417,4,0,0,23,0,0,5,notpassing
1474,0,0,0,0,0,0,0,downloadable
1496,0,0,0,0,0,0,3,downloadable
1512,0,0,0,3,0,0,8,downloadable
1544,23,0,0,4,0,0,12,downloadable
1558,0,0,0,0,1,0,0,notpassing
1669,0,0,0,0,0,0,0,downloadable
1679,0,0,0,5,0,0,5,downloadable
1690,32,0,0,8,0,0,3,downloadable
1820,2,1,0,27,0,0,0,notpassing
1845,0,0,0,3,0,0,3,downloadable
1902,0,1,0,0,0,0,0,downloadable
1959,0,0,0,0,1,0,0,notpassing
2012,0,0,0,6,0,0,3,downloadable
2053,3,1,0,36,0,0,3,downloadable
2632,0,0,0,4,0,0,9,notpassing
2655,0,0,0,3,0,0,0,notpassing
2677,0,0,0,3,0,0,3,downloadable
2753,2,0,0,61,0,0,8,downloadable
2853,8,1,0,2,0,0,0,downloadable
3012,0,0,0,3,1,0,0,notpassing
3031,0,0,0,0,0,0,0,notpassing
3198,0,0,0,0,0,0,0,notpassing
3301,21,0,0,6,0,0,3,downloadable
3349,0,0,0,0,0,0,0,notpassing
3393,0,0,0,0,1,0,0,notpassing
3434,0,0,0,0,0,0,0,notpassing
3486,0,0,0,0,1,0,0,downloadable
3542,0,2,0,0,0,0,0,notpassing
3597,4,0,0,7,0,0,0,notpassing
3598,0,0,0,0,1,0,0,notpassing
3637,0,0,0,0,1,0,0,notpassing
3808,0,0,0,0,0,0,0,notpassing
3866,32,0,0,28,0,0,6,notpassing
3927,0,0,0,0,1,0,0,notpassing
4078,0,0,0,0,0,0,0,notpassing
4086,1,0,0,0,0,0,0,downloadable
4236,0,0,0,1,0,0,0,notpassing
4256,18,0,0,10,1,0,0,notpassing
4264,0,0,0,0,0,0,0,notpassing
4360,0,0,0,0,1,0,0,notpassing
4553,0,0,0,0,1,0,0,notpassing
4708,9,0,0,8,0,0,0,notpassing
4716,1,0,0,17,0,0,3,downloadable
4755,0,0,0,0,1,0,3,downloadable
4837,0,0,0,0,1,0,0,notpassing
4844,0,0,0,0,1,0,0,notpassing
4862,0,1,0,0,0,0,7,downloadable
4956,1,0,0,10,0,0,6,notpassing
5058,0,0,0,0,0,0,0,notpassing
5119,77,0,0,5,1,0,9,downloadable
5202,0,0,0,0,1,0,0,downloadable
5243,6,2,0,5,0,0,3,downloadable
5405,0,0,0,0,0,0,0,notpassing
5572,0,0,0,0,1,0,0,notpassing
5645,0,0,0,0,0,0,0,notpassing
5704,0,0,0,0,1,0,0,notpassing
5731,0,1,0,13,0,0,14,notpassing
5831,0,0,0,1,0,0,0,notpassing
5885,0,0,0,0,0,0,0,notpassing
5957,0,0,0,0,0,0,0,notpassing
5960,9,1,0,16,0,0,17,downloadable
5976,0,1,0,3,0,0,3,downloadable
6104,0,0,0,2,0,0,3,downloadable
6248,0,0,0,0,0,0,0,notpassing
6378,0,0,0,3,0,0,8,notpassing
6453,0,0,0,21,0,0,9,downloadable
6456,0,0,0,0,0,0,0,notpassing
6513,1,0,0,0,0,0,0,notpassing
6557,0,0,0,0,0,0,0,notpassing
6560,0,0,0,0,0,0,0,notpassing
6708,0,0,0,0,0,0,0,notpassing
6715,20,1,0,10,0,0,0,downloadable
6743,0,0,0,1,0,0,8,downloadable
6940,0,0,0,9,0,0,6,downloadable
7160,7,0,0,21,1,0,3,downloadable
7169,0,0,0,1,0,0,0,downloadable
7173,0,0,0,0,1,0,0,notpassing
7205,1,0,0,17,0,0,8,downloadable
7209,0,0,0,1,0,0,0,downloadable
7212,0,0,0,0,0,0,0,downloadable
7270,0,0,0,0,0,0,0,notpassing
7450,30,0,0,24,1,0,45,downloadable
7464,0,0,0,0,0,0,0,notpassing
7551,0,0,0,0,0,0,8,notpassing
7632,0,0,0,0,0,0,0,notpassing
7655,0,0,0,0,0,0,5,notpassing
7657,16,1,0,43,0,0,6,downloadable
7659,0,0,0,28,0,0,3,notpassing
7787,10,1,0,8,0,0,6,downloadable
7874,18,1,0,0,0,0,7,downloadable
7902,0,0,0,0,0,0,0,downloadable
8036,0,0,0,0,0,0,2,downloadable
8103,0,0,0,0,1,0,0,notpassing
8149,0,0,0,0,0,0,0,notpassing
8152,0,3,0,7,0,0,8,downloadable
8162,0,0,0,6,0,0,0,notpassing
8198,0,0,0,0,0,0,0,downloadable
8437,0,0,0,0,0,0,0,notpassing
8467,0,0,0,0,1,0,0,notpassing
8584,0,0,0,0,0,0,0,downloadable
8648,0,0,0,0,0,0,0,notpassing
8709,2,0,0,1,0,0,10,notpassing
8753,0,0,0,0,3,0,0,notpassing
8852,0,0,0,0,0,0,0,downloadable
8872,0,0,0,0,2,0,0,notpassing
8922,0,0,0,0,0,0,0,notpassing
8964,18,0,0,12,0,0,3,notpassing
8983,0,4,0,11,0,0,6,downloadable
8995,0,0,0,0,0,0,6,notpassing
9023,0,0,0,0,0,0,0,notpassing
9024,0,0,0,0,0,0,0,notpassing
9035,0,1,0,0,0,0,3,downloadable
9364,5,1,0,1,0,0,6,notpassing
9435,0,0,0,2,0,0,0,notpassing
9515,0,0,0,0,0,0,0,notpassing
9574,0,0,0,10,0,0,0,notpassing
9684,0,0,0,0,2,0,0,notpassing
9745,0,0,0,0,0,0,0,notpassing
9795,0,0,0,0,0,0,0,notpassing
9880,17,0,0,9,0,0,6,downloadable
9936,0,0,0,14,1,0,18,notpassing
10117,4,0,0,0,0,0,5,downloadable
10208,0,0,0,0,1,0,0,notpassing
10228,3,1,0,26,0,0,6,downloadable
10294,84,1,0,3,0,0,8,downloadable
10369,10,1,0,38,0,0,3,downloadable
10469,5,0,0,14,0,0,5,downloadable
10499,0,0,0,0,0,0,0,downloadable
10602,0,0,0,0,0,0,0,notpassing
10791,0,0,0,0,0,0,0,downloadable
10815,0,0,0,0,0,0,0,notpassing
10864,0,0,0,0,0,0,0,downloadable
11042,7,0,0,29,0,0,0,notpassing
11143,0,0,0,0,0,0,0,notpassing
11158,5,0,0,5,0,0,6,notpassing
11206,0,0,0,0,1,0,0,notpassing
11212,3,0,0,0,0,0,8,downloadable
11246,0,0,0,0,0,0,0,notpassing
11308,13,0,0,14,0,0,0,downloadable
11331,0,0,0,0,0,0,0,notpassing
11386,0,0,0,6,0,0,0,notpassing
11511,0,0,0,0,0,0,0,notpassing
11727,0,0,0,5,0,0,3,downloadable
11876,0,1,0,10,0,0,3,downloadable
11955,55,1,0,48,0,0,0,notpassing
12083,0,0,0,0,0,0,0,notpassing
12183,0,0,0,0,0,0,0,notpassing
12212,0,0,0,0,0,0,0,notpassing
12254,1,0,0,11,0,0,3,downloadable
12518,55,0,0,6,0,0,11,downloadable
12519,3,0,0,0,0,0,3,downloadable
12634,12,0,0,5,0,0,11,downloadable
12644,0,0,0,3,0,0,0,notpassing
12646,1,0,0,0,1,0,3,notpassing
12861,0,0,0,21,0,0,5,downloadable
12960,0,0,0,0,0,0,0,notpassing
12962,0,0,0,2,0,0,3,downloadable
13259,0,0,0,0,1,0,0,notpassing
13293,5,0,0,15,0,0,3,downloadable
13298,2,0,0,10,0,0,10,downloadable
13677,0,0,0,0,0,0,0,notpassing
13777,0,0,0,0,0,0,0,downloadable
14013,0,0,0,0,0,0,0,notpassing
14057,0,0,0,0,0,0,3,downloadable
14111,0,0,0,0,0,0,0,notpassing
14159,0,0,0,0,0,0,0,notpassing
14173,0,0,0,0,0,0,0,downloadable
14215,0,0,0,2,0,0,0,notpassing
14465,12,1,0,34,0,0,15,downloadable
14577,6,1,0,19,0,0,6,downloadable
14665,0,0,0,3,1,0,0,notpassing
14728,0,0,0,0,0,0,3,notpassing
14750,0,0,0,0,0,0,0,notpassing
14754,3,0,0,15,0,0,3,notpassing
14897,1,0,0,5,1,0,3,downloadable
14905,0,0,0,0,0,0,8,downloadable
14906,22,0,0,4,0,0,13,downloadable
14970,0,0,0,7,0,0,3,downloadable
14971,25,1,0,35,0,0,3,downloadable
15009,0,0,0,8,0,0,5,notpassing
15017,0,0,0,0,0,0,0,notpassing
15128,0,0,0,1,0,0,5,notpassing
15130,0,0,0,0,0,0,0,notpassing
15172,5,1,0,9,0,0,11,downloadable
15198,0,0,0,3,0,0,6,downloadable
15217,1,0,0,27,0,0,7,downloadable
15230,0,0,0,0,0,0,0,notpassing
15236,0,0,0,0,0,0,0,notpassing
15285,0,0,0,0,0,0,5,downloadable
15288,0,0,0,1,0,0,3,downloadable
15306,0,0,0,0,0,0,0,downloadable
15337,0,0,0,0,0,0,0,downloadable
15363,8,0,0,9,0,0,0,notpassing
15364,0,0,0,0,1,0,0,notpassing
15437,0,0,0,0,1,0,0,notpassing
15541,0,0,0,0,0,0,0,notpassing
15698,18,0,0,20,0,0,0,notpassing
15745,0,0,0,3,0,0,11,notpassing
15760,2,1,0,28,0,0,11,downloadable
15847,0,0,0,0,0,0,0,notpassing
15947,0,0,0,0,0,0,0,notpassing
16022,0,0,0,0,0,0,0,downloadable
16109,0,0,0,8,0,0,0,downloadable
16110,1,0,0,1,0,0,8,downloadable
16115,0,0,0,0,0,0,0,downloadable
16152,0,0,0,0,0,0,0,notpassing
16370,0,0,0,0,0,0,0,notpassing
16390,5,0,0,22,0,0,8,notpassing
16396,0,0,0,0,0,0,0,notpassing
16508,8,0,0,20,0,0,6,notpassing
16523,0,0,0,0,0,0,0,downloadable
16548,0,0,0,5,0,0,5,notpassing
16663,0,0,0,0,0,0,7,downloadable
16682,12,1,0,3,0,0,5,notpassing
16747,0,0,0,4,0,0,3,downloadable
16753,0,0,0,10,0,0,0,notpassing
16756,0,0,0,0,0,0,0,downloadable
16808,3,0,0,23,0,0,8,downloadable
16814,19,0,0,18,0,0,11,notpassing
16836,0,0,0,0,0,0,0,downloadable
16860,165,1,0,0,0,0,8,notpassing
16943,0,0,0,0,0,0,0,downloadable
16955,0,0,0,0,0,0,0,notpassing
16962,0,0,0,1,0,0,0,notpassing
17049,0,0,0,0,1,0,0,notpassing
17083,0,0,0,9,0,0,0,notpassing
17092,4,0,0,10,0,0,6,downloadable
17173,0,1,0,0,0,0,3,notpassing
17180,0,0,0,0,0,0,0,notpassing
17272,8,0,0,1,0,0,3,downloadable
17318,0,0,0,0,0,0,0,downloadable
17596,0,0,0,3,1,0,0,notpassing
17612,0,0,0,0,1,0,3,downloadable
17627,2,0,0,21,0,0,5,notpassing
17809,6,0,0,2,0,0,6,downloadable
17813,0,0,0,0,0,0,0,notpassing
17819,0,0,0,0,1,0,0,notpassing
17921,0,0,0,4,0,0,18,notpassing
17974,4,0,0,18,0,0,5,notpassing
18236,0,0,0,0,1,0,0,notpassing
18262,0,0,0,2,0,0,5,downloadable
18440,3,0,0,2,0,0,0,notpassing
18465,0,0,0,8,0,0,3,downloadable
18493,0,0,0,7,0,0,6,downloadable
18521,0,0,0,0,0,0,0,notpassing
18869,0,0,0,0,0,0,0,notpassing
18930,0,0,0,0,0,0,0,notpassing
19135,21,0,0,30,0,0,3,downloadable
19155,0,0,0,0,0,0,0,downloadable
19376,0,0,0,0,0,0,0,downloadable
19409,0,0,0,2,0,0,3,notpassing
19475,0,0,0,0,1,0,0,notpassing
19712,0,0,0,4,0,0,3,notpassing
19824,0,0,0,0,0,0,0,notpassing
19935,0,0,0,0,0,0,0,notpassing
20034,0,0,0,12,0,0,0,notpassing
20127,0,0,0,0,0,0,0,notpassing
20134,1,0,0,0,0,0,8,notpassing
20169,14,0,0,38,0,0,11,downloadable
20312,0,0,0,0,0,0,0,notpassing
20318,0,0,0,0,0,0,0,notpassing
20372,0,0,0,5,0,0,3,downloadable
20445,7,0,0,17,0,0,3,notpassing
20488,0,0,0,0,1,0,0,notpassing
20518,0,1,0,0,0,0,6,notpassing
20553,0,0,0,0,0,0,0,notpassing
20597,1,1,0,14,0,0,0,notpassing
20604,0,0,0,0,0,0,0,downloadable
20651,0,0,0,0,0,0,3,downloadable
20683,2,0,0,15,0,0,8,downloadable
20713,2,0,0,12,1,0,6,notpassing
20716,0,0,0,23,0,0,6,notpassing
20721,0,0,0,3,0,0,5,notpassing
20736,0,0,0,0,0,0,0,notpassing
20739,0,0,0,0,1,0,0,notpassing
20741,3,1,0,13,0,0,0,notpassing
20769,0,0,0,4,0,0,0,notpassing
20796,0,0,0,0,0,0,0,notpassing
20814,14,1,0,4,0,0,8,notpassing
20847,0,0,0,12,0,0,8,downloadable
20857,0,0,0,0,0,0,8,notpassing
20863,1,0,0,4,0,0,3,notpassing
20870,8,2,0,24,0,0,0,downloadable
20950,0,0,0,0,0,0,0,downloadable
20951,2,1,0,0,1,0,0,notpassing
20959,0,0,0,0,0,0,0,notpassing
20981,0,0,0,4,1,0,5,downloadable
21009,3,1,0,25,0,0,8,notpassing
21012,0,0,0,7,0,0,0,notpassing
21020,0,1,0,29,0,0,5,downloadable
21044,27,0,0,24,1,0,3,notpassing
21058,0,0,0,3,0,0,8,notpassing
21112,0,0,0,0,0,0,8,downloadable
21135,0,0,0,0,0,0,0,notpassing
21146,0,0,0,2,0,0,0,downloadable
21172,0,0,0,0,1,0,0,downloadable
21212,0,1,0,8,0,0,3,notpassing
21237,0,0,0,0,0,0,0,downloadable
21251,0,0,0,13,0,0,0,notpassing
21266,9,0,0,9,0,0,0,notpassing
21275,0,0,0,0,1,0,0,notpassing
21279,4,2,0,19,0,0,0,downloadable
21331,0,0,0,0,0,0,0,notpassing
21405,1,0,0,13,0,0,5,notpassing
21416,0,0,0,2,0,0,3,downloadable
21458,0,0,0,2,1,0,0,downloadable
21459,0,0,0,0,1,0,0,downloadable
21472,0,0,0,0,0,0,0,downloadable
21504,0,0,0,0,0,0,0,notpassing
21516,0,0,0,0,2,0,0,notpassing
21529,0,0,0,0,0,0,0,downloadable
21536,0,0,0,0,1,0,0,notpassing
21558,0,0,0,21,0,0,5,notpassing
21600,0,0,0,3,0,0,0,notpassing
21627,0,0,0,18,0,0,13,downloadable
21805,48,1,0,14,0,0,11,downloadable
21813,0,0,0,0,0,0,0,notpassing
21834,0,0,0,0,0,0,0,notpassing
21890,0,0,0,0,0,0,0,notpassing
21973,0,0,0,0,0,0,0,notpassing
22005,2,0,0,0,0,0,3,downloadable
22011,3,0,0,8,1,0,6,downloadable
22194,0,1,0,7,3,0,14,downloadable
22200,3,0,0,9,0,0,3,downloadable
22355,0,0,0,0,1,0,0,notpassing
22486,0,0,0,6,0,0,0,notpassing
22527,0,0,0,0,0,0,0,downloadable
22593,0,0,0,0,0,0,0,notpassing
22612,0,1,0,2,0,0,8,downloadable
22760,0,0,0,0,0,0,0,notpassing
22773,0,0,0,0,1,0,0,notpassing
22781,0,0,0,0,1,0,0,notpassing
22818,0,0,0,0,0,0,0,notpassing
22854,0,0,0,4,0,0,3,downloadable
22855,0,0,0,5,0,0,0,notpassing
22968,0,0,0,25,0,0,16,downloadable
22976,7,0,0,11,0,0,11,downloadable
23024,0,0,0,0,0,0,0,notpassing
23195,0,0,0,3,1,0,5,notpassing
23198,0,0,0,0,0,0,0,notpassing
23203,0,0,0,0,0,0,0,notpassing
23215,0,0,0,1,0,0,3,notpassing
23217,38,1,0,9,0,0,6,downloadable
23363,0,0,0,2,2,0,0,notpassing
23377,0,0,0,0,0,0,0,downloadable
23383,0,0,0,0,0,0,0,downloadable
23391,0,0,0,0,0,0,0,downloadable
23400,0,0,0,0,0,0,0,notpassing
23427,0,0,0,4,1,0,5,downloadable
23511,23,0,0,2,0,0,28,notpassing
23568,0,0,0,0,1,0,0,downloadable
23628,0,0,0,0,0,0,0,notpassing
23630,0,0,0,1,1,0,0,downloadable
23684,0,0,0,0,0,0,0,notpassing
23699,28,1,0,18,0,0,5,downloadable
23760,0,0,0,0,1,0,0,notpassing
23885,10,0,0,13,0,0,5,downloadable
23888,0,0,0,0,2,0,0,notpassing
23905,0,0,0,1,0,0,0,downloadable
23925,0,0,0,16,0,0,0,notpassing
23961,1,0,0,0,0,0,6,notpassing
23966,2,0,0,0,0,0,0,notpassing
23968,4,2,0,17,0,0,5,downloadable
23983,0,0,0,6,0,0,5,downloadable
23986,4,0,0,2,0,0,8,downloadable
23995,0,0,0,3,0,0,6,downloadable
24015,0,0,0,0,0,0,0,notpassing
24029,0,0,0,7,0,0,3,downloadable
24034,0,0,0,5,0,0,5,notpassing
24054,42,1,0,65,0,0,3,downloadable
24056,4,0,0,14,0,0,8,downloadable
24059,20,0,0,7,0,0,6,downloadable
24061,5,0,0,13,0,0,8,downloadable
24068,0,0,0,0,0,0,0,downloadable
24071,0,0,0,12,0,0,0,downloadable
24075,7,0,0,11,0,0,13,notpassing
24086,0,0,0,15,0,0,8,notpassing
24092,4,0,0,2,0,0,5,downloadable
24097,0,0,0,3,1,0,0,notpassing
24104,0,0,0,15,0,0,6,notpassing
24113,1,1,0,12,0,0,11,notpassing
24116,1,0,0,0,0,0,3,notpassing
24120,0,0,0,0,0,0,6,downloadable
24121,0,0,0,7,0,0,17,downloadable
24122,2,0,0,10,0,0,9,downloadable
24125,46,1,0,52,0,0,8,downloadable
24131,0,0,0,4,0,0,0,downloadable
24135,8,2,0,24,0,0,5,downloadable
24136,0,0,0,0,0,0,8,downloadable
24139,0,1,0,12,0,0,3,notpassing
24140,16,0,0,22,0,0,3,notpassing
24150,0,0,0,8,0,0,3,downloadable
24152,11,0,0,22,0,0,8,downloadable
24154,0,0,0,0,0,0,13,downloadable
24156,12,1,0,1,0,0,3,downloadable
24170,0,0,0,0,0,0,0,notpassing
24180,8,0,0,38,0,0,11,downloadable
24181,0,1,0,1,0,0,3,downloadable
24182,0,0,0,2,0,0,5,notpassing
24183,0,0,0,0,0,0,0,notpassing
24184,8,0,0,13,0,0,3,downloadable
24187,5,0,0,14,0,0,3,downloadable
24189,0,0,0,6,0,0,11,notpassing
24192,4,1,0,45,0,0,8,downloadable
24193,0,0,0,1,0,0,0,downloadable
24196,0,0,0,0,0,0,0,downloadable
24198,7,0,0,0,0,0,5,notpassing
24201,0,0,0,10,0,0,8,downloadable
24204,0,0,0,0,0,0,3,notpassing
24206,6,0,0,6,0,0,0,notpassing
24209,1,0,0,12,0,0,7,downloadable
24222,14,1,0,18,0,0,8,notpassing
24241,0,1,0,6,0,0,3,downloadable
24242,0,0,0,19,0,0,14,notpassing
24245,0,1,0,0,0,0,0,notpassing
24246,4,1,0,8,0,0,5,notpassing
24256,2,1,0,49,0,0,6,notpassing
24265,0,0,0,0,0,0,0,notpassing
24276,0,0,0,3,1,0,8,notpassing
24280,0,0,0,3,0,0,0,notpassing
24287,0,0,0,0,0,0,0,notpassing
24293,0,5,0,8,0,0,5,downloadable
24302,1,1,0,4,0,0,0,downloadable
24306,2,1,0,13,0,0,18,notpassing
24319,0,0,0,0,0,0,0,notpassing
24323,0,0,0,0,0,0,0,downloadable
24326,0,0,0,5,0,0,8,downloadable
24348,4,0,0,10,0,0,3,downloadable
24350,0,3,0,2,0,0,7,downloadable
24358,0,0,0,8,0,0,0,notpassing
24361,27,0,0,34,0,0,10,notpassing
24369,85,1,0,36,0,0,3,downloadable
24372,47,0,0,15,0,0,5,notpassing
24375,0,0,0,0,0,0,0,notpassing
24383,4,1,0,4,0,0,0,notpassing
24386,1,0,0,17,0,0,3,downloadable
24393,9,0,0,19,0,0,3,downloadable
24396,28,0,0,29,0,0,6,downloadable
24400,0,1,0,1,0,0,0,notpassing
24401,8,0,0,18,0,0,13,downloadable
24406,4,1,0,2,0,0,5,notpassing
24423,0,1,0,5,0,0,0,notpassing
24425,1,0,0,9,0,0,10,notpassing
24426,0,0,0,10,0,0,5,downloadable
24427,0,0,0,0,0,0,0,downloadable
24458,1,0,0,9,0,0,13,notpassing
24459,10,0,0,36,0,0,14,notpassing
24461,0,0,0,0,0,0,0,downloadable
24473,0,0,0,21,0,0,35,notpassing
24477,13,1,0,15,0,0,6,downloadable
24491,0,0,0,0,0,0,0,downloadable
24492,0,0,0,0,0,0,0,notpassing
24518,0,0,0,0,0,0,0,notpassing
24531,0,0,0,0,0,0,0,notpassing
24543,0,1,0,9,0,0,8,notpassing
24567,9,0,0,17,0,0,3,downloadable
24570,0,0,0,0,0,0,0,downloadable
24576,8,0,0,7,0,0,6,downloadable
24581,0,0,0,0,0,0,0,notpassing
24613,0,1,0,3,1,0,5,downloadable
24614,3,0,0,2,0,0,11,downloadable
24615,0,0,0,8,0,0,6,downloadable
24616,23,2,0,34,0,0,14,downloadable
24643,0,0,0,0,1,0,0,notpassing
24644,81,0,0,16,0,0,11,downloadable
24656,5,1,0,0,0,0,5,downloadable
24675,3,0,0,17,0,0,0,downloadable
24676,0,0,0,0,0,0,0,downloadable
24682,49,0,0,53,0,0,3,notpassing
24686,0,0,0,0,0,0,0,downloadable
24704,0,0,0,0,0,0,0,downloadable
24720,0,0,0,0,0,0,0,notpassing
24732,0,0,0,0,0,0,0,notpassing
24737,0,0,0,0,0,0,0,notpassing
24738,4,0,0,5,0,0,3,downloadable
24747,0,0,0,6,0,0,5,downloadable
24758,40,1,0,31,0,0,7,downloadable
24768,2,1,0,34,0,0,11,notpassing
24800,23,0,0,43,0,0,14,downloadable
24804,7,0,0,24,0,0,5,downloadable
24806,0,0,0,0,0,0,0,notpassing
24812,0,0,0,0,0,0,0,notpassing
24817,0,0,0,0,0,0,0,notpassing
24828,0,0,0,2,0,0,24,downloadable
24833,68,0,0,14,0,0,0,notpassing
24841,8,2,0,23,0,0,5,downloadable
24843,0,0,0,0,0,0,0,notpassing
24876,0,0,0,0,0,0,0,notpassing
24886,0,0,0,0,0,0,0,notpassing
24892,0,0,0,0,0,0,0,notpassing
24922,11,1,0,76,0,0,5,downloadable
24926,0,0,0,0,0,0,0,notpassing
24936,46,0,0,59,0,0,22,downloadable
24939,0,1,0,5,1,0,5,notpassing
24951,4,0,0,11,0,0,14,downloadable
24954,0,0,0,0,0,0,0,notpassing
24955,1,1,0,22,0,0,11,downloadable
24974,0,0,0,0,2,0,0,notpassing
24976,18,1,0,10,0,0,11,downloadable
24978,11,1,0,2,0,0,6,downloadable
24988,0,0,0,30,0,0,14,downloadable
24994,0,0,0,3,0,0,8,notpassing
24996,0,0,0,5,0,0,0,notpassing
25000,0,0,0,0,0,0,0,notpassing
25034,0,1,0,3,0,0,5,downloadable
25040,10,0,0,3,0,0,0,notpassing
25050,0,0,0,4,0,0,6,notpassing
25053,8,0,0,25,0,0,6,downloadable
25054,16,0,0,13,0,0,5,downloadable
25055,62,5,0,11,0,0,8,downloadable
25058,0,0,0,0,0,0,0,notpassing
25096,0,0,0,0,0,0,0,notpassing
25100,0,0,0,1,0,0,3,downloadable
25105,121,1,0,56,0,0,11,notpassing
25107,0,0,0,0,0,0,0,downloadable
25112,0,0,0,0,0,0,0,notpassing
25128,0,1,0,12,0,0,0,downloadable
25155,0,0,0,0,0,0,0,downloadable
25161,0,0,0,9,0,0,5,notpassing
25173,0,1,0,11,0,0,8,downloadable
25181,0,2,0,8,0,0,5,downloadable
25183,21,0,0,45,0,0,3,downloadable
25185,0,1,0,6,0,0,3,downloadable
25186,0,0,0,0,0,0,0,notpassing
25187,1,0,0,0,0,0,3,downloadable
25197,0,0,0,0,0,0,5,downloadable
25217,29,0,0,10,0,0,3,downloadable
25232,0,0,0,0,0,0,0,notpassing
25242,0,0,0,3,0,0,0,notpassing
25251,0,0,0,0,0,0,0,downloadable
25256,1,1,0,33,0,0,9,notpassing
25263,0,0,0,6,0,0,0,notpassing
25268,0,0,0,4,0,0,0,notpassing
25282,0,1,0,0,0,0,13,notpassing
25306,11,0,0,64,0,0,8,downloadable
25319,0,0,0,0,0,0,0,notpassing
25320,89,1,0,46,0,0,7,downloadable
25325,15,1,0,2,0,0,0,notpassing
25351,0,0,0,0,0,0,0,downloadable
25352,5,0,0,16,0,0,3,notpassing
25385,4,0,0,22,0,0,0,notpassing
25394,0,1,0,18,0,0,5,downloadable
25396,0,0,0,33,0,0,9,downloadable
25397,0,0,0,19,0,0,3,downloadable
25398,38,1,0,30,0,0,8,downloadable
25405,3,0,0,0,0,0,5,downloadable
25406,15,0,0,20,0,0,5,notpassing
25412,15,0,0,4,0,0,5,notpassing
25420,0,0,0,3,0,0,0,notpassing
25443,0,0,0,11,0,0,9,downloadable
25447,0,0,0,6,0,0,5,downloadable
25452,0,0,0,0,0,0,0,downloadable
25470,0,0,0,0,0,0,0,downloadable
25472,0,0,0,9,0,0,0,downloadable
25477,29,1,0,27,0,0,8,notpassing
25488,0,0,0,0,0,0,0,downloadable
25492,0,0,0,0,0,0,3,notpassing
25509,0,0,0,12,0,0,8,downloadable
25510,0,0,0,7,0,0,5,downloadable
25542,11,1,0,27,0,0,8,notpassing
25545,2,0,0,28,0,0,6,downloadable
25546,4,0,0,18,0,0,8,notpassing
25549,0,0,0,0,0,0,3,downloadable
25564,0,0,0,4,0,0,3,downloadable
25587,0,0,0,3,0,0,8,notpassing
25611,0,0,0,7,0,0,3,notpassing
25618,0,0,0,0,0,0,0,notpassing
25622,0,0,0,0,0,0,0,downloadable
25640,0,0,0,0,0,0,0,notpassing
25642,10,0,0,8,0,0,8,downloadable
25649,0,0,0,0,0,0,0,notpassing
25677,4,0,0,14,0,0,0,notpassing
25679,8,0,0,5,0,0,0,notpassing
25691,2,1,0,20,0,0,0,notpassing
25692,11,0,0,17,0,0,8,downloadable
25697,0,0,0,0,1,0,0,notpassing
25703,4,0,0,18,0,0,15,notpassing
25717,0,1,0,20,0,0,0,notpassing
25728,1,0,0,16,0,0,3,notpassing
25741,0,0,0,0,0,0,0,downloadable
25766,8,0,0,9,0,0,3,downloadable
25768,2,0,0,17,1,0,3,downloadable
25785,0,0,0,0,0,0,3,notpassing
25786,9,0,0,22,0,0,21,notpassing
25802,0,0,0,4,0,0,3,notpassing
25810,39,0,0,31,0,0,11,notpassing
25814,3,0,0,59,0,0,11,downloadable
25842,0,0,0,0,0,0,0,notpassing
25845,0,0,0,0,0,0,0,notpassing
25853,0,0,0,1,0,0,0,notpassing
25887,8,0,0,26,0,0,6,notpassing
25913,1,0,0,28,0,0,3,downloadable
25914,34,0,0,24,0,0,14,downloadable
25942,0,0,0,0,0,0,0,downloadable
25965,0,1,0,14,0,0,0,notpassing
25971,0,0,0,0,0,0,0,notpassing
25985,1,0,0,7,0,0,9,downloadable
26002,0,0,0,0,0,0,0,notpassing
26007,1,0,0,17,0,0,0,notpassing
26008,0,0,0,0,0,0,0,notpassing
26010,0,0,0,0,0,0,0,downloadable
26020,0,0,0,5,0,0,7,notpassing
26023,0,0,0,0,0,0,0,downloadable
26027,0,0,0,0,0,0,0,notpassing
26031,0,0,0,0,0,0,0,notpassing
26033,0,1,0,1,0,0,8,downloadable
26057,0,0,0,0,0,0,0,downloadable
26059,0,0,0,4,1,0,0,notpassing
26067,5,1,0,6,0,0,6,notpassing
26069,4,1,0,11,1,0,8,downloadable
26070,41,2,0,17,0,0,3,downloadable
26081,0,1,0,8,0,0,3,downloadable
26106,5,1,0,30,0,0,10,downloadable
26116,0,0,0,0,0,0,0,notpassing
26216,74,1,0,8,0,0,5,downloadable
26236,0,0,0,0,0,0,0,downloadable
26251,0,0,0,0,0,0,0,downloadable
26252,8,0,0,13,0,0,9,downloadable
26294,0,0,0,0,0,0,0,notpassing
26299,14,0,0,24,0,0,3,notpassing
26304,0,0,0,9,0,0,11,notpassing
26316,0,1,0,5,0,0,0,notpassing
26324,2,0,0,1,0,0,0,downloadable
26340,0,0,0,4,0,0,0,notpassing
26344,0,0,0,0,0,0,0,downloadable
26351,0,0,0,0,0,0,3,downloadable
26354,6,1,0,41,0,0,15,downloadable
26358,3,0,0,0,0,0,0,notpassing
26371,0,0,0,0,0,0,0,notpassing
26420,5,0,0,23,0,0,5,downloadable
26445,4,0,0,3,0,0,11,downloadable
26483,11,0,0,14,0,0,6,notpassing
26500,11,0,0,35,0,0,11,downloadable
26514,8,1,0,19,0,0,8,notpassing
26521,2,0,0,19,0,0,8,notpassing
26561,0,0,0,0,0,0,3,downloadable
26578,2,0,0,0,0,0,6,notpassing
26591,0,0,0,0,0,0,0,notpassing
26593,0,0,0,5,0,0,8,downloadable
26602,0,0,0,0,0,0,0,notpassing
26653,0,1,0,3,0,0,0,downloadable
26671,0,0,0,2,0,0,18,notpassing
26673,5,0,0,11,0,0,6,notpassing
26677,0,0,0,0,0,0,0,notpassing
26686,0,0,0,0,0,0,0,notpassing
26690,0,0,0,0,0,0,0,notpassing
26691,3,0,0,14,0,0,3,notpassing
26697,0,0,0,0,0,0,0,notpassing
26700,0,0,0,0,1,0,0,notpassing
26701,0,0,0,0,1,0,0,notpassing
26714,4,0,0,19,0,0,8,notpassing
26721,0,1,0,7,0,0,3,notpassing
26732,4,0,0,13,0,0,5,notpassing
26770,0,0,0,0,1,0,0,notpassing
26782,0,0,0,0,1,0,0,notpassing
26842,0,0,0,0,1,0,0,notpassing
26865,62,0,0,15,1,0,0,downloadable
26917,0,0,0,0,1,0,0,notpassing
26928,0,0,0,0,1,0,0,notpassing
26934,4,0,0,0,1,0,0,notpassing
26947,0,0,0,0,1,0,8,downloadable
26958,0,0,0,0,1,0,0,notpassing
26976,0,0,0,2,1,0,0,notpassing
26988,0,0,0,0,1,0,0,notpassing
26994,0,0,0,0,1,0,0,notpassing
26996,0,0,0,0,1,0,0,notpassing
27000,8,0,0,26,1,0,0,notpassing
27004,8,0,0,27,1,0,36,notpassing
27012,0,0,0,0,2,0,0,notpassing
27017,0,0,0,0,1,0,3,notpassing
27044,48,1,0,5,1,0,5,downloadable
27065,33,0,0,40,1,0,5,downloadable
27079,0,0,0,2,1,0,0,notpassing
27108,0,0,0,11,1,0,5,notpassing
27116,2,1,0,14,1,0,0,notpassing
27130,0,0,0,0,1,0,0,notpassing
27131,0,0,0,10,1,0,0,notpassing
27133,0,0,0,0,1,0,0,notpassing
27186,0,0,0,0,1,0,0,downloadable
27189,0,0,0,0,1,0,0,notpassing
27204,0,0,0,0,1,0,0,notpassing
27207,0,0,0,0,1,0,0,notpassing
27212,0,0,0,0,1,0,0,notpassing
27218,0,0,0,0,1,0,0,notpassing
27223,2,1,0,0,1,0,0,notpassing
27230,13,1,0,39,1,0,8,downloadable
27231,0,0,0,0,1,0,0,notpassing
27238,0,0,0,0,1,0,0,downloadable
27242,0,0,0,0,1,0,3,notpassing
27244,0,0,0,0,1,0,0,notpassing
27254,0,1,0,0,1,0,0,notpassing
27267,4,2,0,27,1,0,12,notpassing
27268,0,0,0,0,1,0,3,notpassing
27274,0,0,0,2,2,0,0,notpassing
27295,0,0,0,1,1,0,0,downloadable
27304,1,0,0,6,1,0,9,notpassing
27331,0,0,0,0,0,0,0,notpassing
27340,0,1,0,12,1,0,0,downloadable
27371,0,0,0,0,1,0,0,notpassing
27377,0,0,0,0,1,0,0,notpassing
27380,0,0,0,0,1,0,0,notpassing
27383,0,0,0,0,1,0,0,downloadable
27402,0,0,0,0,1,0,0,notpassing
27414,0,0,0,5,1,0,0,notpassing
27420,0,0,0,42,1,0,11,notpassing
27442,0,0,0,0,1,0,0,notpassing
27443,0,0,0,8,1,0,13,notpassing
27446,17,0,0,40,1,0,3,downloadable
27451,0,0,0,0,1,0,0,notpassing
27452,0,0,0,14,1,0,0,notpassing
27455,0,0,0,0,1,0,0,notpassing
27462,0,0,0,0,0,0,0,notpassing
27472,0,0,0,0,0,0,0,downloadable
27473,0,0,0,0,0,0,0,notpassing
27474,0,0,0,0,0,0,0,notpassing
27479,0,0,0,0,0,0,0,notpassing
