user_id,1,2,4,6,7
99,0.0,0.0,7.0,0.0,0.0
1466,0.0,0.0,10.0,0.0,6.0
2845,1.0,0.0,6.0,0.0,0.0
4716,1.0,0.0,1.0,0.0,0.0
5243,21.0,0.0,9.0,0.0,0.0
5588,1.0,0.0,10.0,0.0,3.0
6261,0.0,0.0,2.0,0.0,0.0
6385,0.0,0.0,8.0,0.0,13.0
14729,10.0,0.0,3.0,0.0,0.0
15349,0.0,0.0,2.0,0.0,0.0
15922,0.0,0.0,6.0,0.0,0.0
20067,0.0,0.0,4.0,0.0,20.0
22185,0.0,0.0,5.0,0.0,3.0
22339,2.0,0.0,5.0,0.0,0.0
22532,0.0,0.0,7.0,0.0,0.0
22609,16.0,0.0,19.0,0.0,9.0
22653,2.0,0.0,5.0,0.0,0.0
23085,4.0,0.0,36.0,42.0,14.0
23398,1.0,0.0,12.0,0.0,0.0
23724,0.0,0.0,3.0,0.0,0.0
24008,0.0,1.0,9.0,0.0,0.0
24165,0.0,0.0,9.0,6.0,0.0
24310,1.0,0.0,3.0,2.0,0.0
24356,2.0,0.0,4.0,0.0,0.0
24709,2.0,0.0,14.0,0.0,6.0
24829,4.0,0.0,7.0,0.0,0.0
24941,1.0,0.0,5.0,0.0,5.0
24959,20.0,0.0,28.0,23.0,27.0
25103,0.0,0.0,0.0,0.0,8.0
25201,0.0,0.0,9.0,0.0,0.0
25467,0.0,0.0,23.0,0.0,14.0
25499,2.0,5.0,28.0,11.0,5.0
25575,4.0,0.0,14.0,0.0,0.0
25695,1.0,0.0,4.0,0.0,0.0
25758,1.0,0.0,15.0,0.0,0.0
25832,2.0,0.0,5.0,0.0,0.0
25833,1.0,0.0,4.0,18.0,0.0
25942,1.0,0.0,3.0,0.0,0.0
25953,0.0,0.0,9.0,0.0,14.0
26191,9.0,0.0,20.0,4.0,12.0
26367,0.0,0.0,38.0,11.0,0.0
26429,7.0,0.0,29.0,0.0,0.0
26446,1.0,0.0,6.0,0.0,0.0
26519,1.0,0.0,4.0,79.0,0.0
26721,0.0,0.0,5.0,0.0,0.0
26894,0.0,0.0,25.0,5.0,17.0
26936,10.0,0.0,21.0,0.0,0.0
27021,0.0,0.0,3.0,0.0,0.0
27060,0.0,0.0,8.0,50.0,22.0
27322,2.0,0.0,45.0,0.0,0.0
27421,1.0,0.0,5.0,0.0,0.0
27471,0.0,0.0,7.0,0.0,16.0
