appnope==0.1.0
asgiref==3.2.10
backcall==0.2.0
certifi==2020.6.20
cycler==0.10.0
decorator==4.4.2
deprecation==2.1.0
Django==3.0.3
graphviz==0.14.1
importlib-metadata==1.7.0
intervaltree==3.1.0
ipython==7.17.0
ipython-genutils==0.2.0
jedi==0.17.2
Jinja2==2.11.2
joblib==0.16.0
jsonpickle==1.4.1
kiwisolver==1.2.0
lxml==4.5.2
MarkupSafe==1.1.1
matplotlib==3.3.1
networkx==2.4
numpy==1.19.1
packaging==20.4
pandas==1.1.0
parso==0.7.1
pexpect==4.8.0
pickleshare==0.7.5
Pillow==7.2.0
pm4py==1.4.1.1
prompt-toolkit==3.0.6
psycopg2-binary==2.8.5
ptyprocess==0.6.0
PuLP==2.1
pydotplus==2.0.2
Pygments==2.6.1
pyparsing==2.4.7
python-dateutil==2.8.1
pytz==2020.1
pyvis==0.1.8.2
scikit-learn==0.23.2
scipy==1.5.2
six==1.15.0
sklearn==0.0
sortedcontainers==2.2.2
sqlparse==0.3.1
StringDist==1.0.9
threadpoolctl==2.1.0
tqdm==4.48.2
traitlets==4.3.3
wcwidth==0.2.5
zipp==3.1.0
